/lhcb/MC/Upgrade/XDIGI/00052242/0000/00052242_00000013_1.xdigi 20783000000.0
/lhcb/MC/Upgrade/XDIGI/00052242/0000/00052242_00000047_1.xdigi 9519000000.0
/lhcb/MC/Upgrade/XDIGI/00052242/0000/00052242_00000013_1.xdigi 20783000000.0
/lhcb/MC/Upgrade/XDIGI/00052242/0000/00052242_00000047_1.xdigi 9519000000.0
/lhcb/MC/Upgrade/XDIGI/00052242/0000/00052242_00000047_1.xdigi 9519000000.0
/lhcb/MC/Upgrade/XDIGI/00052242/0000/00052242_00000013_1.xdigi 20783000000.0
/lhcb/MC/Upgrade/XDIGI/00052242/0000/00052242_00000013_1.xdigi 20783000000.0
/lhcb/MC/Upgrade/XDIGI/00052242/0000/00052242_00000013_1.xdigi 20783000000.0
/lhcb/MC/Upgrade/XDIGI/00052242/0000/00052242_00000047_1.xdigi 9519000000.0
/lhcb/MC/Upgrade/XDIGI/00052242/0000/00052242_00000013_1.xdigi 20783000000.0
/lhcb/MC/Upgrade/XDIGI/00052242/0000/00052242_00000047_1.xdigi 9519000000.0
/lhcb/MC/Upgrade/XDIGI/00052242/0000/00052242_00000013_1.xdigi 20783000000.0
/lhcb/MC/Upgrade/XDIGI/00052242/0000/00052242_00000047_1.xdigi 9519000000.0
/lhcb/MC/Upgrade/XDIGI/00052242/0000/00052242_00000013_1.xdigi 20783000000.0
/lhcb/MC/Upgrade/XDIGI/00052242/0000/00052242_00000047_1.xdigi 9519000000.0
/lhcb/MC/Upgrade/XDIGI/00052242/0000/00052242_00000013_1.xdigi 20783000000.0
/lhcb/MC/Upgrade/XDIGI/00052242/0000/00052242_00000047_1.xdigi 9519000000.0
/lhcb/MC/Upgrade/XDIGI/00052242/0000/00052242_00000047_1.xdigi 9519000000.0
/lhcb/MC/Upgrade/XDIGI/00052242/0000/00052242_00000047_1.xdigi 9519000000.0
/lhcb/MC/Upgrade/XDIGI/00052242/0000/00052242_00000013_1.xdigi 20783000000.0
/lhcb/MC/Upgrade/XDIGI/00052242/0000/00052242_00000047_1.xdigi 9519000000.0
/lhcb/MC/Upgrade/XDIGI/00052242/0000/00052242_00000013_1.xdigi 20783000000.0
/lhcb/MC/Upgrade/XDIGI/00052242/0000/00052242_00000013_1.xdigi 20783000000.0
/lhcb/MC/Upgrade/XDIGI/00052242/0000/00052242_00000047_1.xdigi 9519000000.0
/lhcb/MC/Upgrade/XDIGI/00052242/0000/00052242_00000013_1.xdigi 20783000000.0
/lhcb/MC/Upgrade/XDIGI/00052242/0000/00052242_00000013_1.xdigi 20783000000.0
/lhcb/MC/Upgrade/XDIGI/00052242/0000/00052242_00000047_1.xdigi 9519000000.0
/lhcb/MC/Upgrade/XDIGI/00052242/0000/00052242_00000047_1.xdigi 9519000000.0
/lhcb/MC/Upgrade/XDIGI/00052242/0000/00052242_00000013_1.xdigi 20783000000.0
/lhcb/MC/Upgrade/XDIGI/00052242/0000/00052242_00000013_1.xdigi 20783000000.0
/lhcb/MC/Upgrade/XDIGI/00052242/0000/00052242_00000013_1.xdigi 20783000000.0
/lhcb/MC/Upgrade/XDIGI/00052242/0000/00052242_00000047_1.xdigi 9519000000.0
/lhcb/MC/Upgrade/XDIGI/00052242/0000/00052242_00000013_1.xdigi 20783000000.0
/lhcb/MC/Upgrade/XDIGI/00052242/0000/00052242_00000047_1.xdigi 9519000000.0
/lhcb/MC/Upgrade/XDIGI/00052242/0000/00052242_00000013_1.xdigi 20783000000.0
/lhcb/MC/Upgrade/XDIGI/00052242/0000/00052242_00000047_1.xdigi 9519000000.0
/lhcb/MC/Upgrade/XDIGI/00052242/0000/00052242_00000047_1.xdigi 9519000000.0
/lhcb/MC/Upgrade/XDIGI/00052242/0000/00052242_00000013_1.xdigi 20783000000.0
/lhcb/MC/Upgrade/XDIGI/00052242/0000/00052242_00000013_1.xdigi 20783000000.0
/lhcb/MC/Upgrade/XDIGI/00052242/0000/00052242_00000047_1.xdigi 9519000000.0
/lhcb/MC/Upgrade/XDIGI/00052242/0000/00052242_00000013_1.xdigi 20783000000.0
/lhcb/MC/Upgrade/XDIGI/00052242/0000/00052242_00000047_1.xdigi 9519000000.0
