/lhcb/LHCb/Collision16/SEMILEPTONIC.DST/00053450/0003/00053450_00030622_1.semileptonic.dst 281583333.333
/lhcb/LHCb/Collision16/SEMILEPTONIC.DST/00053450/0002/00053450_00021803_1.semileptonic.dst 281583333.333
/lhcb/LHCb/Collision16/SEMILEPTONIC.DST/00053450/0001/00053450_00017239_1.semileptonic.dst 281583333.333
/lhcb/LHCb/Collision16/SEMILEPTONIC.DST/00053450/0000/00053450_00003239_1.semileptonic.dst 281583333.333
/lhcb/LHCb/Collision16/SEMILEPTONIC.DST/00053450/0007/00053450_00072419_1.semileptonic.dst 281583333.333
/lhcb/LHCb/Collision16/SEMILEPTONIC.DST/00053935/0000/00053935_00000595_1.semileptonic.dst 281583333.333
/lhcb/LHCb/Collision16/SEMILEPTONIC.DST/00053450/0007/00053450_00075485_1.semileptonic.dst 281583333.333
/lhcb/LHCb/Collision16/SEMILEPTONIC.DST/00053450/0007/00053450_00078422_1.semileptonic.dst 281583333.333
/lhcb/LHCb/Collision16/SEMILEPTONIC.DST/00053450/0008/00053450_00080151_1.semileptonic.dst 281583333.333
/lhcb/LHCb/Collision16/SEMILEPTONIC.DST/00052200/0002/00052200_00028080_1.semileptonic.dst 281583333.333
/lhcb/LHCb/Collision16/SEMILEPTONIC.DST/00052200/0002/00052200_00024799_1.semileptonic.dst 281583333.333
/lhcb/LHCb/Collision16/SEMILEPTONIC.DST/00053450/0003/00053450_00033977_1.semileptonic.dst 281583333.333
/lhcb/LHCb/Collision16/SEMILEPTONIC.DST/00053450/0003/00053450_00030622_1.semileptonic.dst 281583333.333
/lhcb/LHCb/Collision16/SEMILEPTONIC.DST/00053450/0002/00053450_00021803_1.semileptonic.dst 281583333.333
/lhcb/LHCb/Collision16/SEMILEPTONIC.DST/00053450/0001/00053450_00017239_1.semileptonic.dst 281583333.333
/lhcb/LHCb/Collision16/SEMILEPTONIC.DST/00053450/0000/00053450_00003239_1.semileptonic.dst 281583333.333
/lhcb/LHCb/Collision16/SEMILEPTONIC.DST/00053450/0007/00053450_00072419_1.semileptonic.dst 281583333.333
/lhcb/LHCb/Collision16/SEMILEPTONIC.DST/00053935/0000/00053935_00000595_1.semileptonic.dst 281583333.333
/lhcb/LHCb/Collision16/SEMILEPTONIC.DST/00053450/0007/00053450_00075485_1.semileptonic.dst 281583333.333
/lhcb/LHCb/Collision16/SEMILEPTONIC.DST/00053450/0007/00053450_00078422_1.semileptonic.dst 281583333.333
/lhcb/LHCb/Collision16/SEMILEPTONIC.DST/00053450/0008/00053450_00080151_1.semileptonic.dst 281583333.333
/lhcb/LHCb/Collision16/SEMILEPTONIC.DST/00052200/0002/00052200_00028080_1.semileptonic.dst 281583333.333
/lhcb/LHCb/Collision16/SEMILEPTONIC.DST/00052200/0002/00052200_00024799_1.semileptonic.dst 281583333.333
/lhcb/LHCb/Collision16/SEMILEPTONIC.DST/00053450/0003/00053450_00033977_1.semileptonic.dst 281583333.333
