/lhcb/LHCb/Collision16/SEMILEPTONIC.DST/00052200/0002/00052200_00020114_1.semileptonic.dst 618250000.0
/lhcb/LHCb/Collision16/SEMILEPTONIC.DST/00052200/0002/00052200_00029203_1.semileptonic.dst 618250000.0
/lhcb/LHCb/Collision16/SEMILEPTONIC.DST/00052200/0000/00052200_00004392_1.semileptonic.dst 618250000.0
/lhcb/LHCb/Collision16/SEMILEPTONIC.DST/00053450/0005/00053450_00053850_1.semileptonic.dst 618250000.0
/lhcb/LHCb/Collision16/SEMILEPTONIC.DST/00053450/0000/00053450_00007974_1.semileptonic.dst 618250000.0
/lhcb/LHCb/Collision16/SEMILEPTONIC.DST/00053450/0000/00053450_00000645_1.semileptonic.dst 618250000.0
/lhcb/LHCb/Collision16/SEMILEPTONIC.DST/00052200/0002/00052200_00028048_1.semileptonic.dst 618250000.0
/lhcb/LHCb/Collision16/SEMILEPTONIC.DST/00053450/0004/00053450_00040961_1.semileptonic.dst 618250000.0
/lhcb/LHCb/Collision16/SEMILEPTONIC.DST/00052200/0003/00052200_00032798_1.semileptonic.dst 618250000.0
/lhcb/LHCb/Collision16/SEMILEPTONIC.DST/00053450/0004/00053450_00040675_1.semileptonic.dst 618250000.0
/lhcb/LHCb/Collision16/SEMILEPTONIC.DST/00052200/0002/00052200_00022842_1.semileptonic.dst 618250000.0
/lhcb/LHCb/Collision16/SEMILEPTONIC.DST/00053450/0002/00053450_00020129_1.semileptonic.dst 618250000.0
/lhcb/MC/Upgrade/XDIGI/00052242/0000/00052242_00000043_1.xdigi 4287000000.0
/lhcb/MC/Upgrade/XDIGI/00052242/0000/00052242_00000043_1.xdigi 4287000000.0
/lhcb/MC/Upgrade/XDIGI/00052242/0000/00052242_00000007_1.xdigi 30086000000.0
/lhcb/MC/Upgrade/XDIGI/00052242/0000/00052242_00000029_1.xdigi 36478000000.0
/lhcb/MC/Upgrade/XDIGI/00052242/0000/00052242_00000023_1.xdigi 21304000000.0
/lhcb/MC/Upgrade/XDIGI/00052242/0000/00052242_00000029_1.xdigi 36478000000.0
/lhcb/MC/Upgrade/XDIGI/00052242/0000/00052242_00000043_1.xdigi 4287000000.0
/lhcb/MC/Upgrade/XDIGI/00052242/0000/00052242_00000043_1.xdigi 4287000000.0
/lhcb/MC/Upgrade/XDIGI/00052242/0000/00052242_00000026_1.xdigi 9600000000.0
/lhcb/MC/Upgrade/XDIGI/00052242/0000/00052242_00000026_1.xdigi 9600000000.0
/lhcb/MC/Upgrade/XDIGI/00052242/0000/00052242_00000007_1.xdigi 30086000000.0
/lhcb/MC/Upgrade/XDIGI/00052242/0000/00052242_00000007_1.xdigi 30086000000.0
/lhcb/MC/Upgrade/XDIGI/00052242/0000/00052242_00000007_1.xdigi 30086000000.0
/lhcb/MC/Upgrade/XDIGI/00052242/0000/00052242_00000023_1.xdigi 21304000000.0
/lhcb/MC/Upgrade/XDIGI/00052242/0000/00052242_00000023_1.xdigi 21304000000.0
/lhcb/MC/Upgrade/XDIGI/00052242/0000/00052242_00000023_1.xdigi 21304000000.0
/lhcb/MC/Upgrade/XDIGI/00052242/0000/00052242_00000029_1.xdigi 36478000000.0
/lhcb/MC/Upgrade/XDIGI/00052242/0000/00052242_00000029_1.xdigi 36478000000.0
/lhcb/MC/Upgrade/XDIGI/00052242/0000/00052242_00000026_1.xdigi 9600000000.0
/lhcb/MC/Upgrade/XDIGI/00052242/0000/00052242_00000026_1.xdigi 9600000000.0
/lhcb/MC/Upgrade/XDIGI/00052242/0000/00052242_00000007_1.xdigi 30086000000.0
/lhcb/MC/Upgrade/XDIGI/00052242/0000/00052242_00000043_1.xdigi 4287000000.0
/lhcb/MC/Upgrade/XDIGI/00052242/0000/00052242_00000023_1.xdigi 21304000000.0
/lhcb/MC/Upgrade/XDIGI/00052242/0000/00052242_00000029_1.xdigi 36478000000.0
/lhcb/MC/Upgrade/XDIGI/00052242/0000/00052242_00000026_1.xdigi 9600000000.0
/lhcb/MC/Upgrade/XDIGI/00052242/0000/00052242_00000043_1.xdigi 4287000000.0
/lhcb/MC/Upgrade/XDIGI/00052242/0000/00052242_00000026_1.xdigi 9600000000.0
/lhcb/MC/Upgrade/XDIGI/00052242/0000/00052242_00000023_1.xdigi 21304000000.0
/lhcb/MC/Upgrade/XDIGI/00052242/0000/00052242_00000029_1.xdigi 36478000000.0
/lhcb/MC/Upgrade/XDIGI/00052242/0000/00052242_00000023_1.xdigi 21304000000.0
/lhcb/MC/Upgrade/XDIGI/00052242/0000/00052242_00000043_1.xdigi 4287000000.0
/lhcb/MC/Upgrade/XDIGI/00052242/0000/00052242_00000026_1.xdigi 9600000000.0
/lhcb/MC/Upgrade/XDIGI/00052242/0000/00052242_00000029_1.xdigi 36478000000.0
/lhcb/MC/Upgrade/XDIGI/00052242/0000/00052242_00000043_1.xdigi 4287000000.0
/lhcb/MC/Upgrade/XDIGI/00052242/0000/00052242_00000026_1.xdigi 9600000000.0
/lhcb/MC/Upgrade/XDIGI/00052242/0000/00052242_00000007_1.xdigi 30086000000.0
/lhcb/MC/Upgrade/XDIGI/00052242/0000/00052242_00000007_1.xdigi 30086000000.0
/lhcb/MC/Upgrade/XDIGI/00052242/0000/00052242_00000043_1.xdigi 4287000000.0
/lhcb/MC/Upgrade/XDIGI/00052242/0000/00052242_00000029_1.xdigi 36478000000.0
/lhcb/MC/Upgrade/XDIGI/00052242/0000/00052242_00000007_1.xdigi 30086000000.0
/lhcb/MC/Upgrade/XDIGI/00052242/0000/00052242_00000023_1.xdigi 21304000000.0
/lhcb/MC/Upgrade/XDIGI/00052242/0000/00052242_00000023_1.xdigi 21304000000.0
/lhcb/MC/Upgrade/XDIGI/00052242/0000/00052242_00000029_1.xdigi 36478000000.0
/lhcb/MC/Upgrade/XDIGI/00052242/0000/00052242_00000026_1.xdigi 9600000000.0
/lhcb/MC/Upgrade/XDIGI/00052242/0000/00052242_00000007_1.xdigi 30086000000.0
/lhcb/MC/Upgrade/XDIGI/00052242/0000/00052242_00000029_1.xdigi 36478000000.0
/lhcb/MC/Upgrade/XDIGI/00052242/0000/00052242_00000023_1.xdigi 21304000000.0
/lhcb/MC/Upgrade/XDIGI/00052242/0000/00052242_00000043_1.xdigi 4287000000.0
/lhcb/MC/Upgrade/XDIGI/00052242/0000/00052242_00000026_1.xdigi 9600000000.0
/lhcb/MC/Upgrade/XDIGI/00052242/0000/00052242_00000007_1.xdigi 30086000000.0
/lhcb/MC/Upgrade/XDIGI/00052242/0000/00052242_00000023_1.xdigi 21304000000.0
/lhcb/MC/Upgrade/XDIGI/00052242/0000/00052242_00000026_1.xdigi 9600000000.0
/lhcb/MC/Upgrade/XDIGI/00052242/0000/00052242_00000029_1.xdigi 36478000000.0
/lhcb/MC/Upgrade/XDIGI/00052242/0000/00052242_00000029_1.xdigi 36478000000.0
/lhcb/MC/Upgrade/XDIGI/00052242/0000/00052242_00000043_1.xdigi 4287000000.0
/lhcb/MC/Upgrade/XDIGI/00052242/0000/00052242_00000026_1.xdigi 9600000000.0
/lhcb/MC/Upgrade/XDIGI/00052242/0000/00052242_00000007_1.xdigi 30086000000.0
/lhcb/MC/Upgrade/XDIGI/00052242/0000/00052242_00000023_1.xdigi 21304000000.0
/lhcb/MC/Upgrade/XDIGI/00052242/0000/00052242_00000029_1.xdigi 36478000000.0
/lhcb/MC/Upgrade/XDIGI/00052242/0000/00052242_00000023_1.xdigi 21304000000.0
/lhcb/MC/Upgrade/XDIGI/00052242/0000/00052242_00000043_1.xdigi 4287000000.0
/lhcb/MC/Upgrade/XDIGI/00052242/0000/00052242_00000026_1.xdigi 9600000000.0
/lhcb/MC/Upgrade/XDIGI/00052242/0000/00052242_00000043_1.xdigi 4287000000.0
/lhcb/MC/Upgrade/XDIGI/00052242/0000/00052242_00000007_1.xdigi 30086000000.0
/lhcb/MC/Upgrade/XDIGI/00052242/0000/00052242_00000007_1.xdigi 30086000000.0
/lhcb/MC/Upgrade/XDIGI/00052242/0000/00052242_00000043_1.xdigi 4287000000.0
/lhcb/MC/Upgrade/XDIGI/00052242/0000/00052242_00000043_1.xdigi 4287000000.0
/lhcb/MC/Upgrade/XDIGI/00052242/0000/00052242_00000007_1.xdigi 30086000000.0
/lhcb/MC/Upgrade/XDIGI/00052242/0000/00052242_00000007_1.xdigi 30086000000.0
/lhcb/MC/Upgrade/XDIGI/00052242/0000/00052242_00000026_1.xdigi 9600000000.0
/lhcb/MC/Upgrade/XDIGI/00052242/0000/00052242_00000043_1.xdigi 4287000000.0
/lhcb/MC/Upgrade/XDIGI/00052242/0000/00052242_00000026_1.xdigi 9600000000.0
/lhcb/MC/Upgrade/XDIGI/00052242/0000/00052242_00000023_1.xdigi 21304000000.0
/lhcb/MC/Upgrade/XDIGI/00052242/0000/00052242_00000029_1.xdigi 36478000000.0
/lhcb/MC/Upgrade/XDIGI/00052242/0000/00052242_00000029_1.xdigi 36478000000.0
/lhcb/MC/Upgrade/XDIGI/00052242/0000/00052242_00000023_1.xdigi 21304000000.0
/lhcb/MC/Upgrade/XDIGI/00052242/0000/00052242_00000007_1.xdigi 30086000000.0
/lhcb/MC/Upgrade/XDIGI/00052242/0000/00052242_00000026_1.xdigi 9600000000.0
/lhcb/MC/Upgrade/XDIGI/00052242/0000/00052242_00000043_1.xdigi 4287000000.0
/lhcb/MC/Upgrade/XDIGI/00052242/0000/00052242_00000023_1.xdigi 21304000000.0
/lhcb/MC/Upgrade/XDIGI/00052242/0000/00052242_00000029_1.xdigi 36478000000.0
/lhcb/MC/Upgrade/XDIGI/00052242/0000/00052242_00000026_1.xdigi 9600000000.0
/lhcb/MC/Upgrade/XDIGI/00052242/0000/00052242_00000007_1.xdigi 30086000000.0
/lhcb/MC/Upgrade/XDIGI/00052242/0000/00052242_00000023_1.xdigi 21304000000.0
/lhcb/MC/Upgrade/XDIGI/00052242/0000/00052242_00000029_1.xdigi 36478000000.0
/lhcb/MC/Upgrade/XDIGI/00052242/0000/00052242_00000043_1.xdigi 4287000000.0
/lhcb/MC/Upgrade/XDIGI/00052242/0000/00052242_00000026_1.xdigi 9600000000.0
/lhcb/MC/Upgrade/XDIGI/00052242/0000/00052242_00000007_1.xdigi 30086000000.0
/lhcb/MC/Upgrade/XDIGI/00052242/0000/00052242_00000029_1.xdigi 36478000000.0
/lhcb/MC/Upgrade/XDIGI/00052242/0000/00052242_00000023_1.xdigi 21304000000.0
/lhcb/MC/Upgrade/XDIGI/00052242/0000/00052242_00000026_1.xdigi 9600000000.0
/lhcb/MC/Upgrade/XDIGI/00052242/0000/00052242_00000007_1.xdigi 30086000000.0
/lhcb/MC/Upgrade/XDIGI/00052242/0000/00052242_00000023_1.xdigi 21304000000.0
/lhcb/MC/Upgrade/XDIGI/00052242/0000/00052242_00000023_1.xdigi 21304000000.0
/lhcb/MC/Upgrade/XDIGI/00052242/0000/00052242_00000029_1.xdigi 36478000000.0
/lhcb/MC/Upgrade/XDIGI/00052242/0000/00052242_00000029_1.xdigi 36478000000.0
/lhcb/MC/Upgrade/XDIGI/00052242/0000/00052242_00000043_1.xdigi 4287000000.0
/lhcb/MC/Upgrade/XDIGI/00052242/0000/00052242_00000023_1.xdigi 21304000000.0
/lhcb/MC/Upgrade/XDIGI/00052242/0000/00052242_00000043_1.xdigi 4287000000.0
/lhcb/MC/Upgrade/XDIGI/00052242/0000/00052242_00000026_1.xdigi 9600000000.0
/lhcb/MC/Upgrade/XDIGI/00052242/0000/00052242_00000007_1.xdigi 30086000000.0
/lhcb/MC/Upgrade/XDIGI/00052242/0000/00052242_00000023_1.xdigi 21304000000.0
/lhcb/MC/Upgrade/XDIGI/00052242/0000/00052242_00000029_1.xdigi 36478000000.0
/lhcb/MC/Upgrade/XDIGI/00052242/0000/00052242_00000029_1.xdigi 36478000000.0
/lhcb/MC/Upgrade/XDIGI/00052242/0000/00052242_00000043_1.xdigi 4287000000.0
/lhcb/MC/Upgrade/XDIGI/00052242/0000/00052242_00000043_1.xdigi 4287000000.0
/lhcb/MC/Upgrade/XDIGI/00052242/0000/00052242_00000026_1.xdigi 9600000000.0
/lhcb/MC/Upgrade/XDIGI/00052242/0000/00052242_00000026_1.xdigi 9600000000.0
/lhcb/MC/Upgrade/XDIGI/00052242/0000/00052242_00000007_1.xdigi 30086000000.0
/lhcb/MC/Upgrade/XDIGI/00052242/0000/00052242_00000007_1.xdigi 30086000000.0
/lhcb/LHCb/Collision16/SEMILEPTONIC.DST/00052200/0002/00052200_00020114_1.semileptonic.dst 618250000.0
/lhcb/LHCb/Collision16/SEMILEPTONIC.DST/00052200/0002/00052200_00029203_1.semileptonic.dst 618250000.0
/lhcb/LHCb/Collision16/SEMILEPTONIC.DST/00052200/0000/00052200_00004392_1.semileptonic.dst 618250000.0
/lhcb/LHCb/Collision16/SEMILEPTONIC.DST/00053450/0005/00053450_00053850_1.semileptonic.dst 618250000.0
/lhcb/LHCb/Collision16/SEMILEPTONIC.DST/00053450/0000/00053450_00007974_1.semileptonic.dst 618250000.0
/lhcb/LHCb/Collision16/SEMILEPTONIC.DST/00053450/0000/00053450_00000645_1.semileptonic.dst 618250000.0
/lhcb/LHCb/Collision16/SEMILEPTONIC.DST/00052200/0002/00052200_00028048_1.semileptonic.dst 618250000.0
/lhcb/LHCb/Collision16/SEMILEPTONIC.DST/00053450/0004/00053450_00040961_1.semileptonic.dst 618250000.0
/lhcb/LHCb/Collision16/SEMILEPTONIC.DST/00052200/0003/00052200_00032798_1.semileptonic.dst 618250000.0
/lhcb/LHCb/Collision16/SEMILEPTONIC.DST/00053450/0004/00053450_00040675_1.semileptonic.dst 618250000.0
/lhcb/LHCb/Collision16/SEMILEPTONIC.DST/00052200/0002/00052200_00022842_1.semileptonic.dst 618250000.0
/lhcb/LHCb/Collision16/SEMILEPTONIC.DST/00053450/0002/00053450_00020129_1.semileptonic.dst 618250000.0
