/lhcb/LHCb/Collision16/SEMILEPTONIC.DST/00052200/0000/00052200_00004457_1.semileptonic.dst 127100000.0
/lhcb/LHCb/Collision16/SEMILEPTONIC.DST/00053450/0006/00053450_00063106_1.semileptonic.dst 248333333.333
/lhcb/LHCb/Collision16/SEMILEPTONIC.DST/00053450/0000/00053450_00009780_1.semileptonic.dst 248333333.333
/lhcb/LHCb/Collision16/SEMILEPTONIC.DST/00053450/0003/00053450_00039327_1.semileptonic.dst 248333333.333
/lhcb/LHCb/Collision16/SEMILEPTONIC.DST/00052200/0001/00052200_00017385_1.semileptonic.dst 248333333.333
/lhcb/LHCb/Collision16/SEMILEPTONIC.DST/00053935/0001/00053935_00010334_1.semileptonic.dst 248333333.333
/lhcb/LHCb/Collision16/SEMILEPTONIC.DST/00053935/0001/00053935_00015052_1.semileptonic.dst 248333333.333
/lhcb/LHCb/Collision16/SEMILEPTONIC.DST/00052200/0001/00052200_00018903_1.semileptonic.dst 248333333.333
/lhcb/LHCb/Collision16/SEMILEPTONIC.DST/00052200/0002/00052200_00028167_1.semileptonic.dst 248333333.333
/lhcb/LHCb/Collision16/SEMILEPTONIC.DST/00052200/0002/00052200_00025960_1.semileptonic.dst 248333333.333
/lhcb/LHCb/Collision16/SEMILEPTONIC.DST/00052200/0000/00052200_00004457_1.semileptonic.dst 127100000.0
/lhcb/LHCb/Collision16/SEMILEPTONIC.DST/00053450/0002/00053450_00029080_1.semileptonic.dst 248333333.333
/lhcb/LHCb/Collision16/SEMILEPTONIC.DST/00053935/0001/00053935_00016161_1.semileptonic.dst 248333333.333
/lhcb/LHCb/Collision16/SEMILEPTONIC.DST/00053450/0006/00053450_00063106_1.semileptonic.dst 248333333.333
/lhcb/LHCb/Collision16/SEMILEPTONIC.DST/00053450/0000/00053450_00009780_1.semileptonic.dst 248333333.333
/lhcb/LHCb/Collision16/SEMILEPTONIC.DST/00053450/0003/00053450_00039327_1.semileptonic.dst 248333333.333
/lhcb/LHCb/Collision16/SEMILEPTONIC.DST/00052200/0001/00052200_00017385_1.semileptonic.dst 248333333.333
/lhcb/LHCb/Collision16/SEMILEPTONIC.DST/00053935/0001/00053935_00010334_1.semileptonic.dst 248333333.333
/lhcb/LHCb/Collision16/SEMILEPTONIC.DST/00053935/0001/00053935_00015052_1.semileptonic.dst 248333333.333
/lhcb/LHCb/Collision16/SEMILEPTONIC.DST/00052200/0001/00052200_00018903_1.semileptonic.dst 248333333.333
/lhcb/LHCb/Collision16/SEMILEPTONIC.DST/00052200/0002/00052200_00028167_1.semileptonic.dst 248333333.333
/lhcb/LHCb/Collision16/SEMILEPTONIC.DST/00052200/0002/00052200_00025960_1.semileptonic.dst 248333333.333
/lhcb/LHCb/Collision16/SEMILEPTONIC.DST/00052200/0000/00052200_00004457_1.semileptonic.dst 127100000.0
/lhcb/LHCb/Collision16/SEMILEPTONIC.DST/00053450/0002/00053450_00029080_1.semileptonic.dst 248333333.333
/lhcb/LHCb/Collision16/SEMILEPTONIC.DST/00053935/0001/00053935_00016161_1.semileptonic.dst 248333333.333
