/lhcb/LHCb/Collision16/EW.DST/00053450/0003/00053450_00032377_1.ew.dst 150120000.0
/lhcb/LHCb/Collision16/EW.DST/00052200/0002/00052200_00021136_1.ew.dst 150120000.0
/lhcb/LHCb/Collision16/EW.DST/00053450/0007/00053450_00074305_1.ew.dst 150120000.0
/lhcb/LHCb/Collision16/EW.DST/00052200/0000/00052200_00004281_1.ew.dst 150120000.0
/lhcb/LHCb/Collision16/EW.DST/00052200/0001/00052200_00015407_1.ew.dst 150120000.0
/lhcb/LHCb/Collision16/EW.DST/00053450/0004/00053450_00045979_1.ew.dst 150120000.0
/lhcb/LHCb/Collision16/EW.DST/00052200/0000/00052200_00002287_1.ew.dst 150120000.0
/lhcb/LHCb/Collision16/EW.DST/00052200/0000/00052200_00000429_1.ew.dst 150120000.0
/lhcb/LHCb/Collision16/EW.DST/00053935/0001/00053935_00012251_1.ew.dst 150120000.0
/lhcb/LHCb/Collision16/EW.DST/00053935/0001/00053935_00015392_1.ew.dst 150120000.0
/lhcb/LHCb/Collision16/EW.DST/00053450/0005/00053450_00056828_1.ew.dst 150120000.0
/lhcb/LHCb/Collision16/EW.DST/00053450/0000/00053450_00009325_1.ew.dst 150120000.0
/lhcb/LHCb/Collision16/EW.DST/00052200/0001/00052200_00015710_1.ew.dst 150120000.0
/lhcb/LHCb/Collision16/EW.DST/00052200/0000/00052200_00000782_1.ew.dst 150120000.0
/lhcb/LHCb/Collision16/EW.DST/00052200/0001/00052200_00013147_1.ew.dst 150120000.0
/lhcb/LHCb/Collision16/EW.DST/00053450/0003/00053450_00032371_1.ew.dst 150120000.0
/lhcb/LHCb/Collision16/EW.DST/00053450/0003/00053450_00037813_1.ew.dst 150120000.0
/lhcb/LHCb/Collision16/EW.DST/00053450/0001/00053450_00017425_1.ew.dst 150120000.0
/lhcb/LHCb/Collision16/EW.DST/00053450/0004/00053450_00047056_1.ew.dst 150120000.0
/lhcb/LHCb/Collision16/EW.DST/00053935/0001/00053935_00012928_1.ew.dst 150120000.0
/lhcb/LHCb/Collision16/EW.DST/00052200/0001/00052200_00018660_1.ew.dst 150120000.0
/lhcb/LHCb/Collision16/EW.DST/00052200/0000/00052200_00002009_1.ew.dst 150120000.0
/lhcb/LHCb/Collision16/EW.DST/00052200/0001/00052200_00019766_1.ew.dst 150120000.0
/lhcb/LHCb/Collision16/EW.DST/00052200/0001/00052200_00016094_1.ew.dst 150120000.0
/lhcb/LHCb/Collision16/EW.DST/00052200/0000/00052200_00002570_1.ew.dst 150120000.0
/lhcb/LHCb/Collision16/EW.DST/00052200/0000/00052200_00002146_1.ew.dst 150120000.0
/lhcb/LHCb/Collision16/EW.DST/00052200/0000/00052200_00004694_1.ew.dst 150120000.0
/lhcb/LHCb/Collision16/EW.DST/00052200/0001/00052200_00014872_1.ew.dst 150120000.0
/lhcb/LHCb/Collision16/EW.DST/00052200/0000/00052200_00008125_1.ew.dst 150120000.0
/lhcb/LHCb/Collision16/EW.DST/00052200/0001/00052200_00018665_1.ew.dst 150120000.0
/lhcb/LHCb/Collision16/EW.DST/00053450/0005/00053450_00056830_1.ew.dst 150120000.0
/lhcb/LHCb/Collision16/EW.DST/00052200/0001/00052200_00017434_1.ew.dst 150120000.0
/lhcb/LHCb/Collision16/EW.DST/00053935/0001/00053935_00013608_1.ew.dst 150120000.0
/lhcb/LHCb/Collision16/EW.DST/00052200/0001/00052200_00016496_1.ew.dst 150120000.0
/lhcb/LHCb/Collision16/EW.DST/00052200/0002/00052200_00027661_1.ew.dst 150120000.0
/lhcb/LHCb/Collision16/EW.DST/00053450/0000/00053450_00008191_1.ew.dst 150120000.0
/lhcb/LHCb/Collision16/EW.DST/00053450/0000/00053450_00003802_1.ew.dst 150120000.0
/lhcb/LHCb/Collision16/EW.DST/00052200/0001/00052200_00019225_1.ew.dst 150120000.0
/lhcb/LHCb/Collision16/EW.DST/00053450/0005/00053450_00057176_1.ew.dst 150120000.0
/lhcb/LHCb/Collision16/EW.DST/00052200/0000/00052200_00007710_1.ew.dst 150120000.0
/lhcb/LHCb/Collision16/EW.DST/00053450/0004/00053450_00040001_1.ew.dst 150120000.0
/lhcb/LHCb/Collision16/EW.DST/00053450/0002/00053450_00026940_1.ew.dst 150120000.0
/lhcb/LHCb/Collision16/EW.DST/00053450/0002/00053450_00026933_1.ew.dst 150120000.0
/lhcb/LHCb/Collision16/EW.DST/00053450/0005/00053450_00056821_1.ew.dst 150120000.0
/lhcb/LHCb/Collision16/EW.DST/00053450/0002/00053450_00026946_1.ew.dst 150120000.0
/lhcb/LHCb/Collision16/CHARMMULTIBODY.MDST/00053792/0001/00053792_00013251_1.charmmultibody.mdst 737600000.0
/lhcb/LHCb/Collision16/CHARMMULTIBODY.MDST/00053760/0000/00053760_00007636_1.charmmultibody.mdst 737600000.0
/lhcb/LHCb/Collision16/CHARMMULTIBODY.MDST/00053752/0000/00053752_00007668_1.charmmultibody.mdst 163233333.333
/lhcb/LHCb/Collision11/BHADRON.MDST/00041840/0005/00041840_00059396_1.bhadron.mdst 270900000.0
/lhcb/LHCb/Collision11/BHADRON.MDST/00041840/0000/00041840_00000447_1.bhadron.mdst 803000000.0
/lhcb/MC/2012/ALLSTREAMS.DST/00055147/0000/00055147_00000009_2.AllStreams.dst 4236000000.0
/lhcb/MC/2012/ALLSTREAMS.DST/00055141/0000/00055141_00000013_2.AllStreams.dst 1000000.0
/lhcb/MC/2012/ALLSTREAMS.DST/00055141/0000/00055141_00000017_2.AllStreams.dst 1000000.0
/lhcb/MC/2012/ALLSTREAMS.DST/00055141/0000/00055141_00000008_2.AllStreams.dst 1385000000.0
/lhcb/LHCb/Collision16/EW.DST/00053450/0003/00053450_00032377_1.ew.dst 150120000.0
/lhcb/LHCb/Collision16/EW.DST/00052200/0002/00052200_00021136_1.ew.dst 150120000.0
/lhcb/LHCb/Collision16/EW.DST/00053450/0007/00053450_00074305_1.ew.dst 150120000.0
/lhcb/LHCb/Collision16/EW.DST/00052200/0000/00052200_00004281_1.ew.dst 150120000.0
/lhcb/LHCb/Collision16/EW.DST/00052200/0001/00052200_00015407_1.ew.dst 150120000.0
/lhcb/LHCb/Collision16/EW.DST/00053450/0004/00053450_00045979_1.ew.dst 150120000.0
/lhcb/LHCb/Collision16/EW.DST/00052200/0000/00052200_00002287_1.ew.dst 150120000.0
/lhcb/LHCb/Collision16/EW.DST/00052200/0000/00052200_00000429_1.ew.dst 150120000.0
/lhcb/LHCb/Collision16/EW.DST/00053935/0001/00053935_00012251_1.ew.dst 150120000.0
/lhcb/LHCb/Collision16/EW.DST/00053935/0001/00053935_00015392_1.ew.dst 150120000.0
/lhcb/LHCb/Collision16/EW.DST/00053450/0005/00053450_00056828_1.ew.dst 150120000.0
/lhcb/LHCb/Collision16/EW.DST/00053450/0000/00053450_00009325_1.ew.dst 150120000.0
/lhcb/LHCb/Collision16/EW.DST/00052200/0001/00052200_00015710_1.ew.dst 150120000.0
/lhcb/LHCb/Collision16/EW.DST/00052200/0000/00052200_00000782_1.ew.dst 150120000.0
/lhcb/LHCb/Collision16/EW.DST/00052200/0001/00052200_00013147_1.ew.dst 150120000.0
/lhcb/LHCb/Collision16/EW.DST/00053450/0003/00053450_00032371_1.ew.dst 150120000.0
/lhcb/LHCb/Collision16/EW.DST/00053450/0003/00053450_00037813_1.ew.dst 150120000.0
/lhcb/LHCb/Collision16/EW.DST/00053450/0001/00053450_00017425_1.ew.dst 150120000.0
/lhcb/LHCb/Collision16/EW.DST/00053450/0004/00053450_00047056_1.ew.dst 150120000.0
/lhcb/LHCb/Collision16/EW.DST/00053935/0001/00053935_00012928_1.ew.dst 150120000.0
/lhcb/LHCb/Collision16/EW.DST/00052200/0001/00052200_00018660_1.ew.dst 150120000.0
/lhcb/LHCb/Collision16/EW.DST/00052200/0000/00052200_00002009_1.ew.dst 150120000.0
/lhcb/LHCb/Collision16/EW.DST/00052200/0001/00052200_00019766_1.ew.dst 150120000.0
/lhcb/LHCb/Collision16/EW.DST/00052200/0001/00052200_00016094_1.ew.dst 150120000.0
/lhcb/LHCb/Collision16/EW.DST/00052200/0000/00052200_00002570_1.ew.dst 150120000.0
/lhcb/LHCb/Collision16/EW.DST/00052200/0000/00052200_00002146_1.ew.dst 150120000.0
/lhcb/LHCb/Collision16/EW.DST/00052200/0000/00052200_00004694_1.ew.dst 150120000.0
/lhcb/LHCb/Collision16/EW.DST/00052200/0001/00052200_00014872_1.ew.dst 150120000.0
/lhcb/LHCb/Collision16/EW.DST/00052200/0000/00052200_00008125_1.ew.dst 150120000.0
/lhcb/LHCb/Collision16/EW.DST/00052200/0001/00052200_00018665_1.ew.dst 150120000.0
/lhcb/LHCb/Collision16/EW.DST/00053450/0005/00053450_00056830_1.ew.dst 150120000.0
/lhcb/LHCb/Collision16/EW.DST/00052200/0001/00052200_00017434_1.ew.dst 150120000.0
/lhcb/LHCb/Collision16/EW.DST/00053935/0001/00053935_00013608_1.ew.dst 150120000.0
/lhcb/LHCb/Collision16/EW.DST/00052200/0001/00052200_00016496_1.ew.dst 150120000.0
/lhcb/LHCb/Collision16/EW.DST/00052200/0002/00052200_00027661_1.ew.dst 150120000.0
/lhcb/LHCb/Collision16/EW.DST/00053450/0000/00053450_00008191_1.ew.dst 150120000.0
/lhcb/LHCb/Collision16/EW.DST/00053450/0000/00053450_00003802_1.ew.dst 150120000.0
/lhcb/LHCb/Collision16/EW.DST/00052200/0001/00052200_00019225_1.ew.dst 150120000.0
/lhcb/LHCb/Collision16/EW.DST/00053450/0005/00053450_00057176_1.ew.dst 150120000.0
/lhcb/LHCb/Collision16/EW.DST/00052200/0000/00052200_00007710_1.ew.dst 150120000.0
/lhcb/LHCb/Collision16/EW.DST/00053450/0004/00053450_00040001_1.ew.dst 150120000.0
/lhcb/LHCb/Collision16/EW.DST/00053450/0002/00053450_00026940_1.ew.dst 150120000.0
/lhcb/LHCb/Collision16/EW.DST/00053450/0002/00053450_00026933_1.ew.dst 150120000.0
/lhcb/LHCb/Collision16/EW.DST/00053450/0005/00053450_00056821_1.ew.dst 150120000.0
/lhcb/LHCb/Collision16/EW.DST/00053450/0002/00053450_00026946_1.ew.dst 150120000.0
/lhcb/LHCb/Collision16/CHARMMULTIBODY.MDST/00053792/0001/00053792_00013251_1.charmmultibody.mdst 737600000.0
/lhcb/LHCb/Collision16/CHARMMULTIBODY.MDST/00053760/0000/00053760_00007636_1.charmmultibody.mdst 737600000.0
/lhcb/MC/Upgrade/XDIGI/00052242/0000/00052242_00000049_1.xdigi 86799000000.0
/lhcb/MC/Upgrade/XDIGI/00052242/0000/00052242_00000061_1.xdigi 486000000.0
/lhcb/MC/Upgrade/XDIGI/00052242/0000/00052242_00000001_1.xdigi 48590000000.0
/lhcb/MC/Upgrade/XDIGI/00052242/0000/00052242_00000006_1.xdigi 2284000000.0
/lhcb/MC/Upgrade/XDIGI/00052242/0000/00052242_00000049_1.xdigi 86799000000.0
/lhcb/MC/Upgrade/XDIGI/00052242/0000/00052242_00000061_1.xdigi 486000000.0
/lhcb/MC/Upgrade/XDIGI/00052242/0000/00052242_00000061_1.xdigi 486000000.0
/lhcb/MC/Upgrade/XDIGI/00052242/0000/00052242_00000006_1.xdigi 2284000000.0
/lhcb/MC/Upgrade/XDIGI/00052242/0000/00052242_00000001_1.xdigi 48590000000.0
/lhcb/MC/Upgrade/XDIGI/00052242/0000/00052242_00000006_1.xdigi 2284000000.0
/lhcb/MC/Upgrade/XDIGI/00052242/0000/00052242_00000001_1.xdigi 48590000000.0
/lhcb/MC/Upgrade/XDIGI/00052242/0000/00052242_00000006_1.xdigi 2284000000.0
/lhcb/MC/Upgrade/XDIGI/00052242/0000/00052242_00000061_1.xdigi 486000000.0
/lhcb/MC/Upgrade/XDIGI/00052242/0000/00052242_00000049_1.xdigi 86799000000.0
/lhcb/MC/Upgrade/XDIGI/00052242/0000/00052242_00000061_1.xdigi 486000000.0
/lhcb/MC/Upgrade/XDIGI/00052242/0000/00052242_00000001_1.xdigi 48590000000.0
/lhcb/MC/Upgrade/XDIGI/00052242/0000/00052242_00000006_1.xdigi 2284000000.0
/lhcb/MC/Upgrade/XDIGI/00052242/0000/00052242_00000049_1.xdigi 86799000000.0
/lhcb/MC/Upgrade/XDIGI/00052242/0000/00052242_00000001_1.xdigi 48590000000.0
/lhcb/MC/Upgrade/XDIGI/00052242/0000/00052242_00000006_1.xdigi 2284000000.0
/lhcb/MC/Upgrade/XDIGI/00052242/0000/00052242_00000001_1.xdigi 48590000000.0
/lhcb/MC/Upgrade/XDIGI/00052242/0000/00052242_00000006_1.xdigi 2284000000.0
/lhcb/MC/Upgrade/XDIGI/00052242/0000/00052242_00000061_1.xdigi 486000000.0
/lhcb/MC/Upgrade/XDIGI/00052242/0000/00052242_00000049_1.xdigi 86799000000.0
/lhcb/MC/Upgrade/XDIGI/00052242/0000/00052242_00000061_1.xdigi 486000000.0
/lhcb/MC/Upgrade/XDIGI/00052242/0000/00052242_00000006_1.xdigi 2284000000.0
/lhcb/MC/Upgrade/XDIGI/00052242/0000/00052242_00000049_1.xdigi 86799000000.0
/lhcb/MC/Upgrade/XDIGI/00052242/0000/00052242_00000061_1.xdigi 486000000.0
/lhcb/MC/Upgrade/XDIGI/00052242/0000/00052242_00000061_1.xdigi 486000000.0
/lhcb/MC/Upgrade/XDIGI/00052242/0000/00052242_00000001_1.xdigi 48590000000.0
/lhcb/MC/Upgrade/XDIGI/00052242/0000/00052242_00000001_1.xdigi 48590000000.0
/lhcb/MC/Upgrade/XDIGI/00052242/0000/00052242_00000006_1.xdigi 2284000000.0
/lhcb/MC/Upgrade/XDIGI/00052242/0000/00052242_00000061_1.xdigi 486000000.0
/lhcb/MC/Upgrade/XDIGI/00052242/0000/00052242_00000049_1.xdigi 86799000000.0
/lhcb/MC/Upgrade/XDIGI/00052242/0000/00052242_00000061_1.xdigi 486000000.0
/lhcb/MC/Upgrade/XDIGI/00052242/0000/00052242_00000001_1.xdigi 48590000000.0
/lhcb/MC/Upgrade/XDIGI/00052242/0000/00052242_00000006_1.xdigi 2284000000.0
/lhcb/MC/Upgrade/XDIGI/00052242/0000/00052242_00000006_1.xdigi 2284000000.0
/lhcb/MC/Upgrade/XDIGI/00052242/0000/00052242_00000006_1.xdigi 2284000000.0
/lhcb/MC/Upgrade/XDIGI/00052242/0000/00052242_00000001_1.xdigi 48590000000.0
/lhcb/MC/Upgrade/XDIGI/00052242/0000/00052242_00000061_1.xdigi 486000000.0
/lhcb/MC/Upgrade/XDIGI/00052242/0000/00052242_00000049_1.xdigi 86799000000.0
/lhcb/MC/Upgrade/XDIGI/00052242/0000/00052242_00000061_1.xdigi 486000000.0
/lhcb/MC/Upgrade/XDIGI/00052242/0000/00052242_00000001_1.xdigi 48590000000.0
/lhcb/MC/Upgrade/XDIGI/00052242/0000/00052242_00000006_1.xdigi 2284000000.0
/lhcb/MC/Upgrade/XDIGI/00052242/0000/00052242_00000049_1.xdigi 86799000000.0
/lhcb/LHCb/Collision11/BHADRON.MDST/00041840/0005/00041840_00059396_1.bhadron.mdst 270900000.0
/lhcb/MC/Upgrade/XDIGI/00052242/0000/00052242_00000061_1.xdigi 486000000.0
/lhcb/MC/Upgrade/XDIGI/00052242/0000/00052242_00000006_1.xdigi 2284000000.0
/lhcb/MC/Upgrade/XDIGI/00052242/0000/00052242_00000061_1.xdigi 486000000.0
/lhcb/MC/Upgrade/XDIGI/00052242/0000/00052242_00000049_1.xdigi 86799000000.0
/lhcb/MC/Upgrade/XDIGI/00052242/0000/00052242_00000001_1.xdigi 48590000000.0
/lhcb/MC/Upgrade/XDIGI/00052242/0000/00052242_00000006_1.xdigi 2284000000.0
/lhcb/MC/Upgrade/XDIGI/00052242/0000/00052242_00000006_1.xdigi 2284000000.0
/lhcb/MC/Upgrade/XDIGI/00052242/0000/00052242_00000061_1.xdigi 486000000.0
/lhcb/MC/Upgrade/XDIGI/00052242/0000/00052242_00000001_1.xdigi 48590000000.0
/lhcb/MC/Upgrade/XDIGI/00052242/0000/00052242_00000049_1.xdigi 86799000000.0
/lhcb/MC/Upgrade/XDIGI/00052242/0000/00052242_00000049_1.xdigi 86799000000.0
/lhcb/MC/Upgrade/XDIGI/00052242/0000/00052242_00000061_1.xdigi 486000000.0
/lhcb/MC/Upgrade/XDIGI/00052242/0000/00052242_00000006_1.xdigi 2284000000.0
/lhcb/MC/Upgrade/XDIGI/00052242/0000/00052242_00000001_1.xdigi 48590000000.0
/lhcb/MC/Upgrade/XDIGI/00052242/0000/00052242_00000001_1.xdigi 48590000000.0
/lhcb/MC/Upgrade/XDIGI/00052242/0000/00052242_00000049_1.xdigi 86799000000.0
/lhcb/MC/Upgrade/XDIGI/00052242/0000/00052242_00000061_1.xdigi 486000000.0
/lhcb/MC/Upgrade/XDIGI/00052242/0000/00052242_00000001_1.xdigi 48590000000.0
/lhcb/MC/Upgrade/XDIGI/00052242/0000/00052242_00000006_1.xdigi 2284000000.0
/lhcb/LHCb/Collision11/BHADRON.MDST/00041840/0000/00041840_00000447_1.bhadron.mdst 803000000.0
/lhcb/MC/Upgrade/XDIGI/00052242/0000/00052242_00000049_1.xdigi 86799000000.0
/lhcb/MC/Upgrade/XDIGI/00052242/0000/00052242_00000061_1.xdigi 486000000.0
/lhcb/MC/Upgrade/XDIGI/00052242/0000/00052242_00000006_1.xdigi 2284000000.0
/lhcb/MC/Upgrade/XDIGI/00052242/0000/00052242_00000001_1.xdigi 48590000000.0
/lhcb/MC/Upgrade/XDIGI/00052242/0000/00052242_00000006_1.xdigi 2284000000.0
/lhcb/MC/Upgrade/XDIGI/00052242/0000/00052242_00000001_1.xdigi 48590000000.0
/lhcb/MC/Upgrade/XDIGI/00052242/0000/00052242_00000006_1.xdigi 2284000000.0
/lhcb/MC/Upgrade/XDIGI/00052242/0000/00052242_00000061_1.xdigi 486000000.0
/lhcb/MC/Upgrade/XDIGI/00052242/0000/00052242_00000049_1.xdigi 86799000000.0
/lhcb/MC/Upgrade/XDIGI/00052242/0000/00052242_00000006_1.xdigi 2284000000.0
/lhcb/MC/Upgrade/XDIGI/00052242/0000/00052242_00000001_1.xdigi 48590000000.0
/lhcb/MC/Upgrade/XDIGI/00052242/0000/00052242_00000049_1.xdigi 86799000000.0
/lhcb/MC/Upgrade/XDIGI/00052242/0000/00052242_00000049_1.xdigi 86799000000.0
/lhcb/MC/Upgrade/XDIGI/00052242/0000/00052242_00000061_1.xdigi 486000000.0
/lhcb/MC/Upgrade/XDIGI/00052242/0000/00052242_00000061_1.xdigi 486000000.0
/lhcb/MC/2011/ALLSTREAMS.DST/00059450/0000/00059450_00000051_5.AllStreams.dst 1333333.33333
/lhcb/MC/2011/ALLSTREAMS.DST/00059450/0000/00059450_00000007_5.AllStreams.dst 1333333.33333
/lhcb/MC/2011/ALLSTREAMS.DST/00059450/0000/00059450_00000048_5.AllStreams.dst 1333333.33333
/lhcb/data/2016/RAW/FULL/LHCb/COLLISION16/181468/181468_0000001238.raw 2249500000.0
/lhcb/LHCb/Collision16/RDST/00053196/0000/00053196_00008308_1.rdst 2249500000.0
/lhcb/data/2016/RAW/FULL/LHCb/COLLISION16/181469/181469_0000002176.raw 218000000.0
/lhcb/LHCb/Collision16/RDST/00053196/0002/00053196_00023417_1.rdst 218000000.0
/lhcb/data/2016/RAW/FULL/LHCb/COLLISION16/181469/181469_0000003768.raw 899500000.0
/lhcb/LHCb/Collision16/RDST/00053196/0008/00053196_00082071_1.rdst 899500000.0
/lhcb/data/2016/RAW/FULL/LHCb/COLLISION16/181407/181407_0000003544.raw 4885000000.0
/lhcb/LHCb/Collision16/RDST/00053196/0003/00053196_00035620_1.rdst 4885000000.0
/lhcb/data/2016/RAW/FULL/LHCb/COLLISION16/181468/181468_0000003135.raw 2632000000.0
/lhcb/LHCb/Collision16/RDST/00053196/0005/00053196_00051941_1.rdst 2632000000.0
/lhcb/data/2016/RAW/FULL/LHCb/COLLISION16/181468/181468_0000001653.raw 4679000000.0
/lhcb/LHCb/Collision16/RDST/00053196/0001/00053196_00011897_1.rdst 4679000000.0
/lhcb/data/2016/RAW/FULL/LHCb/COLLISION16/181469/181469_0000001058.raw 9506500000.0
/lhcb/LHCb/Collision16/RDST/00053196/0000/00053196_00006915_1.rdst 9506500000.0
/lhcb/data/2016/RAW/FULL/LHCb/COLLISION16/181998/181998_0000003738.raw 13463000000.0
/lhcb/LHCb/Collision16/RDST/00053196/0009/00053196_00097473_1.rdst 13463000000.0
/lhcb/LHCb/Collision16/CHARMMULTIBODY.MDST/00053752/0000/00053752_00007668_1.charmmultibody.mdst 163233333.333
